{
   "appDesc": {
      "description": "Allumez la caméra et prendre des photos, des photos ou une photo avec votre webcam. Plus utile qu'un jouet.",
      "message": "Allumez la caméra et prendre des photos, des photos ou une photo avec votre webcam. Plus utile qu'un jouet."
   },
   "appName": {
      "description": "Allumez la caméra et prendre des photos, des photos ou une photo avec votre webcam. Plus utile qu'un jouet.",
      "message": "Caméra"
   }
}
