{
   "appDesc": {
      "description": "Slå på kameran och ta bilder, bilder, eller en bild med din webbkamera. Mer användbar än en leksak.",
      "message": "Slå på kameran och ta bilder, bilder, eller en bild med din webbkamera. Mer användbar än en leksak."
   },
   "appName": {
      "description": "Slå på kameran och ta bilder, bilder, eller en bild med din webbkamera. Mer användbar än en leksak.",
      "message": "Kamera"
   }
}
