{
   "appDesc": {
      "description": "Увімкніть камеру і знімати фотографії, фотографії, або картинку з веб-камери. Корисніші, ніж іграшка.",
      "message": "Увімкніть камеру і знімати фотографії, фотографії, або картинку з веб-камери. Корисніші, ніж іграшка."
   },
   "appName": {
      "description": "Увімкніть камеру і знімати фотографії, фотографії, або картинку з веб-камери. Корисніші, ніж іграшка.",
      "message": "Камера"
   }
}
