{
   "appDesc": {
      "description": "Enceneu la càmera i fer fotos, fotografies, o una fotografia amb la teva càmera web. Més útil que una joguina.",
      "message": "Enceneu la càmera i fer fotos, fotografies, o una fotografia amb la teva càmera web. Més útil que una joguina."
   },
   "appName": {
      "description": "Enceneu la càmera i fer fotos, fotografies, o una fotografia amb la teva càmera web. Més útil que una joguina.",
      "message": "Càmera"
   }
}
