{
   "appDesc": {
      "description": "The description of the application, as shown on the web store.",
      "message": "Re-implimenterar Google bilden, \"Visa originalbilden\" och \"Fler storlekar\" knapparna."
   },
   "appName": {
      "description": "Title of the application, displayed on the web store.",
      "message": "View image"
   },
   "donatePayPal": {
      "description": "Text used for the donation button.",
      "message": " Donera med PayPal"
   },
   "optionsButton": {
      "description": "Text displayed on the link to options button.",
      "message": "Alternativ"
   },
   "resetButton": {
      "description": "Text displayed on reset button.",
      "message": "Återställ"
   },
   "searchImage": {
      "description": "Button leads to google, search by image page.",
      "message": "Fler storlekar"
   },
   "settingsToggle_NewTab_viewImage": {
      "description": "Settings toggle which causes images to open in new tab.",
      "message": "Öppna bilder i en ny flik:"
   },
   "viewImage": {
      "description": "Button for viewing image.",
      "message": "Visa originalbilden"
   }
}
