{
    "explorer.confirmDelete": false,
    "workbench.iconTheme": "material-icon-theme",
    "workbench.colorTheme": "Wal Bordered",
    "window.zoomLevel": 0,
    "todo-tree.tree.showScanModeButton": false,
    "editor.wordWrap": "on"
}