{
   "APIERRMSG_ABORTED": {
      "description": "Error message that is shown if the operation is aborted",
      "message": "Toiminto keskeytyi."
   },
   "APIERRMSG_DEVICE_LIST_ERROR": {
      "description": "Error message that is shown if there was an error trying to detect removable USB drive and SD cards",
      "message": "USB-muistitikkua tai SD-korttia ei löytynyt."
   },
   "APIERRMSG_DEVICE_LIST_ERROR_ON_HUB": {
      "description": "Error message that is shown if there was an error trying to detect removable USB drives",
      "message": "USB-muistitikkua ei löytynyt."
   },
   "APIERRMSG_DOWNLOAD_CANCELLED": {
      "description": "Error message that is shown if the user cancels the write operation during download",
      "message": "Lataus peruutettu."
   },
   "APIERRMSG_DOWNLOAD_HASH_MISMATCH": {
      "description": "Error message that is shown if the downloaded file doesn't hash to the expected value",
      "message": "Tiedosto ei kelpaa."
   },
   "APIERRMSG_DOWNLOAD_INTERRUPTED": {
      "description": "Error message that is shown if the downloaded was interrupted for any reason",
      "message": "Lataus keskeytyi."
   },
   "APIERRMSG_FILE_INVALID": {
      "description": "Error message that is shown if the file to write is not valid",
      "message": "Tiedosto ei kelpaa."
   },
   "APIERRMSG_OPERATION_ALREADY_IN_PROGRESS": {
      "description": "Error message that is shown if user tries to start a new write operation and there is already one in progress",
      "message": "Toiminto on jo käynnissä."
   },
   "APIERRMSG_UNKNOWN": {
      "description": "Error message that is shown if no matching error message can be found",
      "message": "Tuntematon virhe: $errorCode$.",
      "placeholders": {
         "errorCode": {
            "content": "$1",
            "example": "Error code"
         }
      }
   },
   "APIERRMSG_UNSUPPORTED_OPERATION": {
      "description": "Error message that is shown if the user triggers an unsupported operation",
      "message": "Toimintoa ei tueta."
   },
   "APIERRMSG_UNZIP_ERROR": {
      "description": "Error message that is shown if the file cannot be unzipped for any reason",
      "message": "Tiedostoa ei voi purkaa."
   },
   "APIERRMSG_UNZIP_INVALID_ARCHIVE": {
      "description": "Error message that is shown if the file is not a valid ZIP file",
      "message": "Zip-tiedosto ei kelpaa."
   },
   "APIERRMSG_URL_INVALID": {
      "description": "Error message that is shown if no file is found at the URL to download",
      "message": "Tiedostoa ei löydy."
   },
   "APIERRMSG_VERIFICATION_FAILED": {
      "description": "Error message that is shown if the image was not written properly",
      "message": "Kuvan vahvistus epäonnistui."
   },
   "APP_DESCRIPTION": {
      "description": "High-level description of the application",
      "message": "Luo palautustietoväline Chromebookillesi."
   },
   "APP_DESCRIPTION_ON_HUB": {
      "description": "High-level description of the application",
      "message": "Luo palautus-USB-muistitikku OnHubillesi."
   },
   "APP_NAME": {
      "description": "Name of the application. Cannot exceed 45 characters.",
      "message": "Chromebookin palautussovellus"
   },
   "APP_NAME_ON_HUB": {
      "description": "Name of the application. Cannot exceed 45 characters.",
      "message": "OnHubin palautussovellus"
   },
   "APP_SHORT_NAME": {
      "description": "A short name for the app shown when space is limited. Fewer than 12 characters preferred.",
      "message": "Palautus"
   },
   "CANCEL_BUTTON_TEXT": {
      "description": "Text for the cancel button",
      "message": "Peruuta"
   },
   "COMPLETED": {
      "description": "Shown as part of the text 'x% completed'",
      "message": "valmis"
   },
   "COMPLETE_BULLET1": {
      "description": "Shown on the completed screen",
      "message": "Palauta Chromebook kytkemällä palautustietoväline Chromebookiin."
   },
   "COMPLETE_BULLET1_ON_HUB": {
      "description": "Shown on the completed screen",
      "message": "Kytke OnHubin virtajohto irti ja aseta USB-muistitikku laitteen taakse. Paina pitkään palautuspainiketta ja kytke virta päälle. Paina palautuspainiketta noin 15 sekuntia tai kunnes USB-muistitikun toimintavalo alkaa vilkkua."
   },
   "COMPLETE_BULLET2": {
      "description": "Shown on the completed screen",
      "message": "Palautuksen jälkeen voit poistaa palautustietovälineen tällä ohjelmalla."
   },
   "COMPLETE_BULLET2_ON_HUB": {
      "description": "Shown on the completed screen",
      "message": "OnHubille suoritetaan palautusprosessi, joka voi kestää useamman minuutin. Kun OnHub on palautettu, se käynnistyy uudelleen. Määritä tämän jälkeen OnHubin asetukset käyttämällä Google On -sovellusta."
   },
   "COMPLETE_MESSAGE": {
      "description": "Shown on the completed screen",
      "message": "Voit poistaa palautustietovälineen nyt."
   },
   "COMPLETE_MESSAGE_ON_HUB": {
      "description": "Shown on the completed screen",
      "message": "Voit poistaa palautus-USB-muistitikkusi nyt."
   },
   "COMPLETE_TITLE": {
      "description": "Title of the completed screen",
      "message": "Onnistui! Palautustietovälineesi on valmis"
   },
   "COMPLETE_TITLE_ON_HUB": {
      "description": "Title of the completed screen",
      "message": "Onnistui! Palautus-USB-muistitikkusi on valmis"
   },
   "CONFIRM_CANCELLED_MESSAGE_HTML": {
      "description": "Indicates that the operation has been cancelled",
      "message": "Peruutettu. Klikkaa Luo nyt ja yritä uudelleen.\u003Cbr>\u003Cbr>Poista palautustietoväline klikkaamalla rataskuvaketta oikeassa yläkulmassa."
   },
   "CONFIRM_CANCELLED_MESSAGE_HTML_ON_HUB": {
      "description": "Indicates that the operation has been cancelled",
      "message": "Peruutettu. Klikkaa Luo nyt ja yritä uudelleen.\u003Cbr>\u003Cbr>Poista palautus-USB-muistitikku klikkaamalla rataskuvaketta oikeassa yläkulmassa."
   },
   "CONFIRM_MESSAGE_HTML": {
      "description": "Important message, indicates what the application is going to do",
      "message": "\u003Cb>Tärkeää:\u003C/b> tietovälineesi kaikki tiedot ja osiot poistetaan."
   },
   "CONFIRM_MESSAGE_HTML_ON_HUB": {
      "description": "Important message, indicates what the application is going to do",
      "message": "\u003Cb>Tärkeää:\u003C/b> palautus-USB-muistitikun kaikki tiedot ja osiot poistetaan."
   },
   "CONFIRM_TITLE": {
      "description": "Title for the confirmation screen",
      "message": "Luo palautuskuva"
   },
   "CONTINUE_BUTTON_TEXT": {
      "description": "Text for the continue button at the bottom of the screen",
      "message": "Jatka"
   },
   "CREATE_ANOTHER_BUTTON_TEXT": {
      "description": "Text for the button to go back to the start of the application after the recovery disk has been created",
      "message": "Luo uusi"
   },
   "CREATE_NOW_BUTTON_TEXT": {
      "description": "Text for the button to start the recovery disk creation",
      "message": "Luo heti"
   },
   "DEV_APP_DESCRIPTION": {
      "description": "High-level description of the Chromebook Dev application",
      "message": "Chromebookin palautussovelluksen kehitysversio"
   },
   "DEV_APP_DESCRIPTION_ON_HUB": {
      "description": "High-level description of the OnHub Dev application",
      "message": "OnHubin palautussovelluksen kehitysversio"
   },
   "DEV_APP_NAME": {
      "description": "Name of the dev application. Cannot exceed 45 characters.",
      "message": "Chromebookin palautussovellus, kehitysversio"
   },
   "DEV_APP_NAME_ON_HUB": {
      "description": "Name of the dev application. Cannot exceed 45 characters.",
      "message": "OnHubin palautussovellus, kehitysversio"
   },
   "DONE_BUTTON_TEXT": {
      "description": "Text for the button to close the application after the recovery disk has been created / Text for the button to go back to the start of the application after the recovery disk has been erased",
      "message": "Valmis"
   },
   "ERASE_COMPLETE_BULLET1": {
      "description": "Shown on the erase completed screen",
      "message": "USB-muistitikkusi tai SD-korttisi on valmis alustusta varten."
   },
   "ERASE_COMPLETE_BULLET1_ON_HUB": {
      "description": "Shown on the erase completed screen",
      "message": "USB-muistitikkusi on valmis alustusta varten."
   },
   "ERASE_COMPLETE_BULLET2": {
      "description": "Shown on the erase completed screen",
      "message": "Suorita alustus käyttämällä käyttöjärjestelmäsi alustustyökalua."
   },
   "ERASE_COMPLETE_TITLE": {
      "description": "Title for erase completed screen",
      "message": "Palautustietoväline on tyhjennetty."
   },
   "ERASE_COMPLETE_TITLE_ON_HUB": {
      "description": "Title for erase completed screen",
      "message": "Palautus-USB-muistitikku on tyhjennetty."
   },
   "ERASE_CONFIRM_MESSAGE": {
      "description": "Important message, indicates what the application is going to do",
      "message": "Palautuskuva ja kaikki palautustietovälineen osiot poistetaan."
   },
   "ERASE_CONFIRM_MESSAGE_ON_HUB": {
      "description": "Important message, indicates what the application is going to do",
      "message": "Palautuskuva ja kaikki palautus-USB-muistitikun osiot poistetaan."
   },
   "ERASE_NOW_BUTTON_TEXT": {
      "description": "Text for the button to start the recovery disk erasure",
      "message": "Poista heti"
   },
   "ERASE_PROGRESS_TEXT": {
      "description": "Shown when the drive is being erased",
      "message": "Älä poista palautustietovälinettäsi."
   },
   "ERASE_PROGRESS_TEXT_ON_HUB": {
      "description": "Shown when the drive is being erased",
      "message": "Älä poista palautus-USB-muistitikkuasi."
   },
   "ERASE_PROGRESS_TITLE": {
      "description": "Title for the screen where the drive is being erased",
      "message": "Palautustietovälineen tyhjentäminen"
   },
   "ERASE_PROGRESS_TITLE_ON_HUB": {
      "description": "Title for the screen where the drive is being erased",
      "message": "Palautus-USB-muistitikun tyhjentäminen"
   },
   "ERASE_SELECT_TARGET_DETECTING": {
      "description": "Indicates that the app is currently detecting the list of USB devices",
      "message": "Tunnistetaan"
   },
   "ERASE_SELECT_TARGET_HIGH_CAPACITY_WARNING_HTML": {
      "description": "Warning that is shown if the user selects a drive with a high capacity",
      "message": "\u003Cb>Varoitus:\u003C/b> onko tämä oikea asema?"
   },
   "ERASE_SELECT_TARGET_NO_DEVICES_FOUND": {
      "description": "Indicates that no USB devices were found",
      "message": "USB-muistitikkuja tai SD-kortteja ei löytynyt."
   },
   "ERASE_SELECT_TARGET_NO_DEVICES_FOUND_ON_HUB": {
      "description": "Indicates that no USB devices were found",
      "message": "USB-muistitikkuja ei löytynyt."
   },
   "ERASE_SELECT_TARGET_SELECT_DEVICE": {
      "description": "Prompts the user to select a drive",
      "message": "Valitse palautustietoväline, jonka haluat poistaa."
   },
   "ERASE_SELECT_TARGET_SELECT_DEVICE_ON_HUB": {
      "description": "Prompts the user to select a drive",
      "message": "Valitse palautus-USB-muistitikku, jonka haluat poistaa."
   },
   "ERASE_SELECT_TARGET_SELECT_DEVICE_PLACEHOLDER": {
      "description": "Prompts the user to select a drive (text is shown inside the dropdown)",
      "message": "Valitse"
   },
   "ERASE_TITLE": {
      "description": "Title for the screens related to erasing",
      "message": "Tyhjennä palautustietoväline"
   },
   "ERASE_TITLE_ON_HUB": {
      "description": "Title for the screens related to erasing",
      "message": "Tyhjennä palautus-USB-muistitikku"
   },
   "ERRMSG_PLEASE_TRY_AGAIN": {
      "description": "Error text that is shown after the error message",
      "message": "Yritä uudelleen."
   },
   "ERRMSG_RECOVERY_CONFIG_DOWNLOAD_FAILURE": {
      "description": "Error message that is shown if the app's configuration file cannot be downloaded. In this case, the app will only be able to support offline features.",
      "message": "Määritystiedoston lataaminen epäonnistui. Vain offline-ominaisuudet ovat käytettävissä."
   },
   "GET_STARTED_BUTTON_TEXT": {
      "description": "Text for the 'get started' button at the bottom of the screen",
      "message": "Aloitusopas"
   },
   "GIGABYTE_ABBREVIATION": {
      "description": "The abbreviation for gigabyte",
      "message": "Gt"
   },
   "GO_BACK_BUTTON_TEXT": {
      "description": "Text for the back button at the bottom of the screen",
      "message": "Takaisin"
   },
   "HOURS_REMAINING": {
      "description": "A message that indicates the time remaining for an operation.",
      "message": "$hours$ tuntia jäljellä.",
      "placeholders": {
         "hours": {
            "content": "$1",
            "example": "The number of hours remaining."
         }
      }
   },
   "HWID_INVALID_MODEL": {
      "description": "Message shown to user when it's clear that what they have entered doesn't match any valid model number.",
      "message": "Virheellinen mallinumero. Tarkista tekstisi."
   },
   "HWID_KEEP_TYPING": {
      "description": "Message shown to user when they have no yet entered enough info to determine a specific device.",
      "message": "Mallia ei löytynyt vielä. Jatka yrittämistä."
   },
   "HWID_MATCH_FOUND": {
      "description": "Message shown to user when they have entered enough info to determine a specific device.",
      "message": "Vastaavuus löytyi."
   },
   "HWID_MATCH_FOUND_AND_CHECKSUM_VERIFIED": {
      "description": "Message shown to user when they have entered a full model number and the checksum is verified.",
      "message": "Saman mallin nimen sisältävä vastaavuus löytyi."
   },
   "LEARN_MORE_LINK_TEXT": {
      "description": "Text for the 'learn more' link at the bottom left of the screen",
      "message": "Lisätietoja"
   },
   "LEARN_MORE_LINK_URL": {
      "description": "URL for the 'learn more' link at the bottom left of the screen",
      "message": "http://www.google.com/chromeos/recovery"
   },
   "LEARN_MORE_LINK_URL_ON_HUB": {
      "description": "URL for the 'learn more' link at the bottom left of the screen",
      "message": "https://support.google.com/onhub/answer/6274977"
   },
   "LOADING_CONFIG_TEXT": {
      "description": "Message to user indicating that the app is downloading latest information about recovery for different devices. It is preparing itself to be used.",
      "message": "Valmistellaan… "
   },
   "MENU_ITEM_ERASE_RECOVERY_MEDIA": {
      "description": "Text for the menu item to erase recovery media",
      "message": "Tyhjennä palautustietoväline"
   },
   "MENU_ITEM_ERASE_RECOVERY_MEDIA_ON_HUB": {
      "description": "Text for the menu item to erase recovery USB drive",
      "message": "Tyhjennä palautus-USB-muistitikku"
   },
   "MENU_ITEM_SEND_FEEDBACK": {
      "description": "Text for the menu item to send feedback",
      "message": "Lähetä palautetta"
   },
   "MENU_ITEM_USE_LOCAL_IMAGE": {
      "description": "Text for the menu item to use a local file as the source image for the recovery disk",
      "message": "Käytä paikallista kuvaa"
   },
   "MINUTES_REMAINING": {
      "description": "A message that indicates the time remaining for an operation.",
      "message": "$minutes$ minuuttia jäljellä.",
      "placeholders": {
         "minutes": {
            "content": "$1",
            "example": "The number of minutes remaining."
         }
      }
   },
   "OF": {
      "description": "Shown as part of the text 'step %x of %x'",
      "message": "/"
   },
   "SECONDS_REMAINING": {
      "description": "A message that indicates the time remaining for an operation.",
      "message": "$seconds$ sekuntia jäljellä.",
      "placeholders": {
         "seconds": {
            "content": "$1",
            "example": "The number of seconds remaining."
         }
      }
   },
   "SELECT_IMAGE_SELECT_BY_HWID_LINK_TEXT": {
      "description": "Text for the 'select by model number' link",
      "message": "Anna mallinumero suoraan"
   },
   "SELECT_IMAGE_SELECT_FROM_LIST_LINK_TEXT": {
      "description": "Text for 'select by model' link",
      "message": "Valitse malli luettelosta"
   },
   "SELECT_IMAGE_SELECT_MANUFACTURER_PLACEHOLDER": {
      "description": "Prompts the user to select a manufacturer (text is shown inside the dropdown)",
      "message": "Valitse valmistaja"
   },
   "SELECT_IMAGE_SELECT_PRODUCT_PLACEHOLDER": {
      "description": "Prompts the user to select a product (text is shown inside the dropdown)",
      "message": "Valitse tuote"
   },
   "SELECT_IMAGE_SELECT_PRODUCT_PLACEHOLDER_ON_HUB": {
      "description": "Prompts the user to select a product (text is shown inside the dropdown)",
      "message": "Valitse malli"
   },
   "SELECT_IMAGE_TEXT": {
      "description": "Prompts the user to enter a model number. Refers to the recovery screen.",
      "message": "Anna Chromebookin mallinumero. Löydät sen palautusruudulta."
   },
   "SELECT_IMAGE_TEXT_ON_HUB": {
      "description": "Prompts the user to enter a model number. Refers to the recovery screen.",
      "message": "Anna OnHubin mallinumero."
   },
   "SELECT_IMAGE_THIS_CHROMEBOOKS_MODEL_NUMBER": {
      "description": "Label that precedes a HWID string (e.g.: LINK D25-E5M-K75) that is the model number for the Chromebook the user is using. The HWID string is hyperlinked and clicking on it will populate the value into the model number input field. In English, this would for example read 'For this Chromebook, enter _LINK D25-E5M-K75_'",
      "message": "Jos kyseessä on tämä Chromebook, kirjoita"
   },
   "SELECT_IMAGE_THIS_CHROMEBOOKS_MODEL_NUMBER_ON_HUB": {
      "description": "Label that precedes a HWID string (e.g.: ARKHAM D25-E5M-K75) that is the model number for the OnHub the user is using. The HWID string is hyperlinked and clicking on it will populate the value into the model number input field. In English, this would for example read 'For this OnHub, enter _LINK D25-E5M-K75_'",
      "message": "Jos kyseessä on tämä OnHub, kirjoita"
   },
   "SELECT_IMAGE_TITLE": {
      "description": "Title for the image selection screen",
      "message": "Tunnista Chromebookisi"
   },
   "SELECT_IMAGE_TITLE_ON_HUB": {
      "description": "Title for the image selection screen",
      "message": "Tunnista OnHubisi"
   },
   "SELECT_TARGET_DETECTING": {
      "description": "Indicates that the app is currently detecting the list of USB devices",
      "message": "Tunnistetaan"
   },
   "SELECT_TARGET_HIGH_CAPACITY_WARNING_HTML": {
      "description": "Warning that is shown if the user selects a drive with a high capacity",
      "message": "\u003Cb>Varoitus:\u003C/b> onko tämä oikea tietoväline?"
   },
   "SELECT_TARGET_HIGH_CAPACITY_WARNING_HTML_ON_HUB": {
      "description": "Warning that is shown if the user selects a drive with a high capacity",
      "message": "\u003Cb>Varoitus:\u003C/b> onko tämä oikea USB-muistitikku?"
   },
   "SELECT_TARGET_LOW_CAPACITY_ERROR": {
      "description": "Error that is shown if the user selects a drive with not enough capacity",
      "message": "Tietovälineen koon on oltava vähintään 8 Gt."
   },
   "SELECT_TARGET_LOW_CAPACITY_ERROR_ON_HUB": {
      "description": "Error that is shown if the user selects a drive with not enough capacity",
      "message": "USB-muistitikun koon on oltava vähintään 8 Gt."
   },
   "SELECT_TARGET_NO_DEVICES_FOUND": {
      "description": "Indicates that no USB devices were found",
      "message": "USB-muistitikkuja tai SD-kortteja ei löytynyt."
   },
   "SELECT_TARGET_NO_DEVICES_FOUND_ON_HUB": {
      "description": "Indicates that no USB devices were found",
      "message": "USB-muistitikkuja ei löytynyt."
   },
   "SELECT_TARGET_SELECT_DEVICE": {
      "description": "Prompts the user to select a drive",
      "message": "Valitse tietoväline, jota haluat käyttää."
   },
   "SELECT_TARGET_SELECT_DEVICE_ON_HUB": {
      "description": "Prompts the user to select a drive",
      "message": "Valitse USB-muistitikku, jota haluat käyttää."
   },
   "SELECT_TARGET_SELECT_DEVICE_PLACEHOLDER": {
      "description": "Prompts the user to select a drive (text is shown inside the dropdown)",
      "message": "Valitse"
   },
   "SELECT_TARGET_TITLE": {
      "description": "Title for the screen where the user selects the target USB device",
      "message": "Aseta USB-muistitikku tai SD-kortti"
   },
   "SELECT_TARGET_TITLE_ON_HUB": {
      "description": "Title for the screen where the user selects the target USB device",
      "message": "Aseta USB-muistitikku"
   },
   "STAGE_COMPLETE": {
      "description": "Status text that is shown when the drive is being created",
      "message": "Valmis"
   },
   "STAGE_DOWNLOAD": {
      "description": "Status text that is shown when the drive is being created",
      "message": "Ladataan"
   },
   "STAGE_DOWNLOADVERIFY": {
      "description": "Status text that is shown when the drive is being created",
      "message": "Vahvistetaan latausta"
   },
   "STAGE_UNPACK": {
      "description": "Status text that is shown when the drive is being created",
      "message": "Puretaan pakkausta"
   },
   "STAGE_UNZIP": {
      "description": "Status text that is shown when the drive is being created",
      "message": "Puretaan pakkausta"
   },
   "STAGE_VERIFY": {
      "description": "Status text that is shown when the drive is being created",
      "message": "Tarkistetaan"
   },
   "STAGE_VERIFYDOWNLOAD": {
      "description": "Status text that is shown when the drive is being created",
      "message": "Vahvistetaan latausta"
   },
   "STAGE_VERIFYWRITE": {
      "description": "Status text that is shown when the drive is being created",
      "message": "Tarkistetaan"
   },
   "STAGE_WRITE": {
      "description": "Status text that is shown when the drive is being created",
      "message": "Kirjoitetaan"
   },
   "STEP": {
      "description": "Shown as part of the text 'step %x of %x'",
      "message": "Vaihe"
   },
   "UNSUPPORTED_TEXT": {
      "description": "Text displayed when the user's platform is not supported.",
      "message": "Valitettavasti alustaasi ei tueta tällä hetkellä. Lisätietoja on \u003Ca href=\"http://www.google.com/chromeos/recovery\" target=\"_blank\">Chromebook-ohjekeskuksessa\u003C/a>."
   },
   "UNSUPPORTED_TEXT_MAC": {
      "description": "Text displayed when the user's platform is not supported.",
      "message": "Valitettavasti Macia tuetaan vain M37-versiossa ja sitä uudemmissa. Päivitä Chromesi versioon M37. Tämä saattaa edellyttää \u003Ca href=\"https://support.google.com/chromebook/answer/1086915\" target=\"_blank\">vaihtamista betaversioon\u003C/a>."
   },
   "UNSUPPORTED_TEXT_ON_HUB": {
      "description": "Text displayed when the user's platform is not supported.",
      "message": "Valitettavasti alustaasi ei tueta tällä hetkellä. Lisätietoja on \u003Ca href=\"https://support.google.com/onhub/answer/6274977\" target=\"_blank\">OnHub-ohjekeskuksessa\u003C/a>."
   },
   "UNSUPPORTED_TITLE": {
      "description": "Title displayed when the user's platform is not supported.",
      "message": "Alustaasi ei tueta tällä hetkellä"
   },
   "UNSUPPORTED_TITLE_LINUX": {
      "description": "Title displayed when the user's platform is not supported.",
      "message": "Linuxia ei tueta tällä hetkellä"
   },
   "UNSUPPORTED_TITLE_MAC": {
      "description": "Title displayed when the user's platform is not supported.",
      "message": "Macia ei tueta tällä hetkellä"
   },
   "UNSUPPORTED_TITLE_WIN": {
      "description": "Title displayed when the user's platform is not supported.",
      "message": "Windowsia ei tueta tällä hetkellä"
   },
   "WARNING_OFFLINE": {
      "description": "Warning message that is shown to the user when his device is offline.",
      "message": "Laite on offline-tilassa. Vain offline-ominaisuudet ovat käytettävissä."
   },
   "WELCOME_TEXT": {
      "description": "Text on the welcome screen",
      "message": "Tarvitset vähintään 8 Gt:n USB-muistitikun tai SD-kortin, jonka voit tyhjentää."
   },
   "WELCOME_TEXT_ON_HUB": {
      "description": "Text on the welcome screen",
      "message": "Tarvitset vähintään 8 Gt:n USB-muistitikun, jonka voit tyhjentää."
   },
   "WELCOME_TITLE": {
      "description": "Title for the welcome screen",
      "message": "Luo palautustietoväline Chromebookillesi"
   },
   "WELCOME_TITLE_ON_HUB": {
      "description": "Title for the welcome screen",
      "message": "Luo palautus-USB-muistitikku OnHubillesi"
   },
   "WRITE_MESSAGE": {
      "description": "Shown on the screen where the drive is being created",
      "message": "Älä poista palautustietovälinettäsi."
   },
   "WRITE_MESSAGE_ON_HUB": {
      "description": "Shown on the screen where the drive is being created",
      "message": "Älä poista palautus-USB-muistitikkuasi."
   },
   "WRITE_TITLE": {
      "description": "Title of the screen where the drive is being created",
      "message": "Palautuskuvan luominen"
   }
}
