{
   "appDesc": {
      "description": "कैमरे पर मुड़ें और चित्र, तस्वीरें, या अपने वेब कैमरा के साथ एक तस्वीर ले लो. एक खिलौने की तुलना में अधिक उपयोगी है.",
      "message": "कैमरे पर मुड़ें और चित्र, तस्वीरें, या अपने वेब कैमरा के साथ एक तस्वीर ले लो. एक खिलौने की तुलना में अधिक उपयोगी है."
   },
   "appName": {
      "description": "कैमरे पर मुड़ें और चित्र, तस्वीरें, या अपने वेब कैमरा के साथ एक तस्वीर ले लो. एक खिलौने की तुलना में अधिक उपयोगी है.",
      "message": "कैमरा"
   }
}
