{
   "appDesc": {
      "description": "Kytke kamera ja ottaa kuvia, valokuvia tai kuvan kanssa webcam. Enemmän hyötyä kuin lelu.",
      "message": "Kytke kamera ja ottaa kuvia, valokuvia tai kuvan kanssa webcam. Enemmän hyötyä kuin lelu."
   },
   "appName": {
      "description": "Kytke kamera ja ottaa kuvia, valokuvia tai kuvan kanssa webcam. Enemmän hyötyä kuin lelu.",
      "message": "Kamera"
   }
}
