00:00:00.283560 VirtualBox GUI VM Selector Window 6.1.8 r137981 linux.amd64 (May 18 2020 06:23:25) release log
00:00:00.283561 Log opened 2020-06-30T20:41:33.306284000Z
00:00:00.283562 Build Type: release
00:00:00.283564 OS Product: Linux
00:00:00.283564 OS Release: 5.4.43-1-MANJARO
00:00:00.283565 OS Version: #1 SMP PREEMPT Wed May 27 20:25:12 UTC 2020
00:00:00.283580 DMI Product Name: XPS 15 9560
00:00:00.283586 DMI Product Version: 
00:00:00.283589 Firmware type: UEFI
00:00:00.283892 Secure Boot: Disabled
00:00:00.283920 Host RAM: 31964MB (31.2GB) total, 29280MB (28.5GB) available
00:00:00.283922 Executable: /usr/lib/virtualbox/VirtualBox
00:00:00.283923 Process ID: 17436
00:00:00.283923 Package type: LINUX_64BITS_GENERIC (OSE)
00:00:00.283943 Qt version: 5.15.0
00:00:00.293391 GUI: UIMediumEnumerator: Medium-enumeration started...
00:00:00.293407 GUI: UIMediumEnumerator: Medium-enumeration finished!
00:00:00.674816 GUI: UIDesktopWidgetWatchdog::sltHandleHostScreenAvailableGeometryCalculated: Screen 0 work area is actually resized to: 0x0 x 1920x1080
00:01:18.734396 GUI: UIMediumEnumerator: Medium with key={{1d04a819-134d-47f5-97f1-b6a13d33857b}} created
00:01:18.826614 GUI: UIMediumEnumerator: Medium-enumeration finished!
00:01:41.751575 ERROR [COM]: aRC=NS_ERROR_UNEXPECTED (0x8000ffff) aIID={c0447716-ff5a-4795-b57a-ecd5fffa18a4} aComponent={SessionWrap} aText={The session is not locked (session state: Unlocked)}, preserve=false aResultDetail=0
