00:00:00.480519 VirtualBox GUI VM Selector Window 6.1.8 r137981 linux.amd64 (May 18 2020 06:23:25) release log
00:00:00.480520 Log opened 2020-06-30T21:02:07.600090000Z
00:00:00.480521 Build Type: release
00:00:00.480522 OS Product: Linux
00:00:00.480523 OS Release: 5.4.44-1-MANJARO
00:00:00.480524 OS Version: #1 SMP PREEMPT Wed Jun 3 14:48:07 UTC 2020
00:00:00.480538 DMI Product Name: XPS 15 9560
00:00:00.480543 DMI Product Version: 
00:00:00.480547 Firmware type: UEFI
00:00:00.480873 Secure Boot: Disabled
00:00:00.480913 Host RAM: 31964MB (31.2GB) total, 30933MB (30.2GB) available
00:00:00.480916 Executable: /usr/lib/virtualbox/VirtualBox
00:00:00.480916 Process ID: 2077
00:00:00.480916 Package type: LINUX_64BITS_GENERIC (OSE)
00:00:00.480936 Qt version: 5.15.0
00:00:00.493125 GUI: UIMediumEnumerator: Medium-enumeration started...
00:00:00.891057 GUI: UIDesktopWidgetWatchdog::sltHandleHostScreenAvailableGeometryCalculated: Screen 0 work area is actually resized to: 0x0 x 1920x1080
00:00:00.899028 GUI: UIMediumEnumerator: Medium-enumeration finished!
00:12:52.479604 ERROR [COM]: aRC=NS_ERROR_UNEXPECTED (0x8000ffff) aIID={c0447716-ff5a-4795-b57a-ecd5fffa18a4} aComponent={SessionWrap} aText={The session is not locked (session state: Unlocked)}, preserve=false aResultDetail=0
