00:00:00.000138 main     VirtualBox XPCOM Server 6.1.8 r137981 linux.amd64 (May 18 2020 06:23:25) release log
00:00:00.000140 main     Log opened 2020-06-30T20:41:33.146010000Z
00:00:00.000140 main     Build Type: release
00:00:00.000141 main     OS Product: Linux
00:00:00.000142 main     OS Release: 5.4.43-1-MANJARO
00:00:00.000143 main     OS Version: #1 SMP PREEMPT Wed May 27 20:25:12 UTC 2020
00:00:00.000156 main     DMI Product Name: XPS 15 9560
00:00:00.000162 main     DMI Product Version: 
00:00:00.000165 main     Firmware type: UEFI
00:00:00.001185 main     Secure Boot: Disabled
00:00:00.001211 main     Host RAM: 31964MB (31.2GB) total, 29283MB (28.5GB) available
00:00:00.001213 main     Executable: /usr/lib/virtualbox/VBoxSVC
00:00:00.001214 main     Process ID: 17459
00:00:00.001214 main     Package type: LINUX_64BITS_GENERIC (OSE)
00:00:00.002604 main     IPC socket path: /tmp/.vbox-kyleb-ipc/ipcd
00:00:00.107105 nspr-2   VirtualBox: object creation starts
00:00:00.107154 nspr-2   Home directory: '/home/kyleb/.config/VirtualBox'
00:00:00.118462 nspr-2   NetIfAdpCtlOut: VBoxNetAdpCtl: Error while retrieving link speed for wlp2s0: VBoxNetAdpCtl: ioctl failed: Operation not supported
00:00:00.118819 nspr-2   HostDnsMonitor: initializing
00:00:00.119061 nspr-2   NAT: resolv.conf: nameserver 192.168.1.254
00:00:00.119069 nspr-2   NAT: resolv.conf: nameserver 75.153.171.122
00:00:00.119072 nspr-2   NAT: resolv.conf: nameserver 2001:568:ff09:10c::53
00:00:00.119075 nspr-2   NAT: resolv.conf: too many nameserver lines, ignoring 2001:568:ff09:10b::122
00:00:00.119082 nspr-2   HostDnsMonitor: updating information
00:00:00.119091 nspr-2   HostDnsMonitor: old information
00:00:00.119093 nspr-2     no server entries
00:00:00.119095 nspr-2     no domain set
00:00:00.119097 nspr-2     no search string entries
00:00:00.119099 nspr-2   HostDnsMonitor: new information
00:00:00.119100 nspr-2     server 1: 192.168.1.254
00:00:00.119102 nspr-2     server 2: 75.153.171.122
00:00:00.119104 nspr-2     server 3: 2001:568:ff09:10c::53
00:00:00.119106 nspr-2     domain: telus
00:00:00.119108 nspr-2     search string 1: telus
00:00:00.120814 nspr-2   Failed to open "/dev/vboxdrvu", errno=2, rc=VERR_VM_DRIVER_NOT_INSTALLED
00:00:00.121049 nspr-2   VD: VDInit finished with VINF_SUCCESS
00:00:00.121215 nspr-2   ERROR [COM]: aRC=NS_ERROR_FAILURE (0x80004005) aIID={027bc463-929c-40e8-bf16-fea557cd8e7e} aComponent={SystemPropertiesWrap} aText={Cannot determine default Guest Additions ISO location. Most likely they are not available}, preserve=false aResultDetail=0
00:00:00.121641 nspr-2   VirtualBox: object created
00:00:22.438842 nspr-3   Failed to open "/dev/vboxdrvu", errno=2, rc=VERR_VM_DRIVER_NOT_INSTALLED
00:00:22.441723 nspr-3   Failed to open "/dev/vboxdrvu", errno=2, rc=VERR_VM_DRIVER_NOT_INSTALLED
00:01:18.091975 createBase Saving settings file "/home/kyleb/.config/VirtualBox/VirtualBox.xml" with version "1.12-linux"
00:01:18.629657 nspr-4   Saving settings file "/home/kyleb/VirtualBox VMs/Kali/Kali.vbox" with version "1.16-linux"
00:01:18.631972 nspr-2   WARNING [COM]: aRC=NS_ERROR_FAILURE (0x80004005) aIID={16ced992-5fdc-4aba-aff5-6a39bbd7c38b} aComponent={HostWrap} aText={Could not load the Host USB Proxy service: VERR_NOT_FOUND}, preserve=true  aResultDetail=0
00:01:18.632643 nspr-4   Saving settings file "/home/kyleb/VirtualBox VMs/Kali/Kali.vbox" with version "1.16-linux"
00:01:18.634554 nspr-4   Saving settings file "/home/kyleb/.config/VirtualBox/VirtualBox.xml" with version "1.12-linux"
00:01:18.639387 nspr-3   Saving settings file "/home/kyleb/.config/VirtualBox/VirtualBox.xml" with version "1.12-linux"
00:01:18.642191 nspr-4   Saving settings file "/home/kyleb/VirtualBox VMs/Kali/Kali.vbox" with version "1.16-linux"
00:01:18.979158 nspr-3   WARNING [COM]: aRC=NS_ERROR_FAILURE (0x80004005) aIID={16ced992-5fdc-4aba-aff5-6a39bbd7c38b} aComponent={HostWrap} aText={Could not load the Host USB Proxy service: VERR_NOT_FOUND}, preserve=true  aResultDetail=0
00:01:19.039827 nspr-3   Failed to open "/dev/vboxdrvu", errno=2, rc=VERR_VM_DRIVER_NOT_INSTALLED
00:01:19.216736 nspr-4   WARNING [COM]: aRC=NS_ERROR_FAILURE (0x80004005) aIID={16ced992-5fdc-4aba-aff5-6a39bbd7c38b} aComponent={HostWrap} aText={Could not load the Host USB Proxy service: VERR_NOT_FOUND}, preserve=true  aResultDetail=0
00:01:19.217821 nspr-5   WARNING [COM]: aRC=NS_ERROR_FAILURE (0x80004005) aIID={16ced992-5fdc-4aba-aff5-6a39bbd7c38b} aComponent={HostWrap} aText={Could not load the Host USB Proxy service: VERR_NOT_FOUND}, preserve=true  aResultDetail=0
00:01:22.662164 nspr-5   Launched VM: 3623882688 pid: 17595 (0x44bb) frontend: GUI/Qt name: Kali
00:01:22.714072 nspr-5   Failed to open "/dev/vboxdrvu", errno=2, rc=VERR_VM_DRIVER_NOT_INSTALLED
00:01:22.735818 nspr-3   WARNING [COM]: aRC=NS_ERROR_FAILURE (0x80004005) aIID={16ced992-5fdc-4aba-aff5-6a39bbd7c38b} aComponent={HostWrap} aText={Could not load the Host USB Proxy service: VERR_NOT_FOUND}, preserve=true  aResultDetail=0
00:01:22.736492 nspr-3   WARNING [COM]: aRC=NS_ERROR_FAILURE (0x80004005) aIID={16ced992-5fdc-4aba-aff5-6a39bbd7c38b} aComponent={HostWrap} aText={Could not load the Host USB Proxy service: VERR_NOT_FOUND}, preserve=true  aResultDetail=0
00:01:23.163513 Watcher  ERROR [COM]: aRC=NS_ERROR_FAILURE (0x80004005) aIID={85632c68-b5bb-4316-a900-5eb28d3413df} aComponent={MachineWrap} aText={The virtual machine 'Kali' has terminated unexpectedly during startup with exit code 1 (0x1)}, preserve=false aResultDetail=0
00:01:23.719874 nspr-5   Failed to open "/dev/vboxdrvu", errno=2, rc=VERR_VM_DRIVER_NOT_INSTALLED
00:01:23.744966 nspr-3   WARNING [COM]: aRC=NS_ERROR_FAILURE (0x80004005) aIID={16ced992-5fdc-4aba-aff5-6a39bbd7c38b} aComponent={HostWrap} aText={Could not load the Host USB Proxy service: VERR_NOT_FOUND}, preserve=true  aResultDetail=0
00:01:23.745645 nspr-5   WARNING [COM]: aRC=NS_ERROR_FAILURE (0x80004005) aIID={16ced992-5fdc-4aba-aff5-6a39bbd7c38b} aComponent={HostWrap} aText={Could not load the Host USB Proxy service: VERR_NOT_FOUND}, preserve=true  aResultDetail=0
