00:00:00.001132 main     VirtualBox XPCOM Server 6.1.8 r137981 linux.amd64 (May 18 2020 06:23:25) release log
00:00:00.001134 main     Log opened 2020-06-30T21:02:07.330059000Z
00:00:00.001134 main     Build Type: release
00:00:00.001136 main     OS Product: Linux
00:00:00.001137 main     OS Release: 5.4.44-1-MANJARO
00:00:00.001137 main     OS Version: #1 SMP PREEMPT Wed Jun 3 14:48:07 UTC 2020
00:00:00.001152 main     DMI Product Name: XPS 15 9560
00:00:00.001157 main     DMI Product Version: 
00:00:00.001160 main     Firmware type: UEFI
00:00:00.001538 main     Secure Boot: Disabled
00:00:00.001565 main     Host RAM: 31964MB (31.2GB) total, 30937MB (30.2GB) available
00:00:00.001568 main     Executable: /usr/lib/virtualbox/VBoxSVC
00:00:00.001568 main     Process ID: 2101
00:00:00.001568 main     Package type: LINUX_64BITS_GENERIC (OSE)
00:00:00.002798 main     IPC socket path: /tmp/.vbox-kyleb-ipc/ipcd
00:00:00.110393 nspr-2   VirtualBox: object creation starts
00:00:00.110565 nspr-2   Home directory: '/home/kyleb/.config/VirtualBox'
00:00:00.111191 nspr-2   Loading settings file "/home/kyleb/.config/VirtualBox/VirtualBox.xml" with version "1.12-linux"
00:00:00.145110 nspr-2   NetIfAdpCtlOut: VBoxNetAdpCtl: Error while retrieving link speed for wlp2s0: VBoxNetAdpCtl: ioctl failed: Operation not supported
00:00:00.147012 nspr-2   HostDnsMonitor: initializing
00:00:00.147605 nspr-2   NAT: resolv.conf: nameserver 192.168.1.254
00:00:00.147633 nspr-2   NAT: resolv.conf: nameserver 75.153.171.122
00:00:00.147645 nspr-2   NAT: resolv.conf: nameserver 2001:568:ff09:10c::53
00:00:00.147655 nspr-2   NAT: resolv.conf: too many nameserver lines, ignoring 2001:568:ff09:10b::122
00:00:00.147680 nspr-2   HostDnsMonitor: updating information
00:00:00.147712 nspr-2   HostDnsMonitor: old information
00:00:00.147719 nspr-2     no server entries
00:00:00.147726 nspr-2     no domain set
00:00:00.147733 nspr-2     no search string entries
00:00:00.147739 nspr-2   HostDnsMonitor: new information
00:00:00.147746 nspr-2     server 1: 192.168.1.254
00:00:00.147754 nspr-2     server 2: 75.153.171.122
00:00:00.147760 nspr-2     server 3: 2001:568:ff09:10c::53
00:00:00.147767 nspr-2     domain: telus
00:00:00.147774 nspr-2     search string 1: telus
00:00:00.153701 nspr-2   Failed to open "/dev/vboxdrvu", errno=2, rc=VERR_VM_DRIVER_NOT_INSTALLED
00:00:00.155778 nspr-2   VD: VDInit finished with VINF_SUCCESS
00:00:00.156388 nspr-2   ERROR [COM]: aRC=NS_ERROR_FAILURE (0x80004005) aIID={027bc463-929c-40e8-bf16-fea557cd8e7e} aComponent={SystemPropertiesWrap} aText={Cannot determine default Guest Additions ISO location. Most likely they are not available}, preserve=false aResultDetail=0
00:00:00.171680 nspr-2   Loading settings file "/home/kyleb/VirtualBox VMs/Kali/Kali.vbox" with version "1.16-linux"
00:00:00.173067 nspr-2   VirtualBox: object created
00:00:04.446829 nspr-2   WARNING [COM]: aRC=NS_ERROR_FAILURE (0x80004005) aIID={16ced992-5fdc-4aba-aff5-6a39bbd7c38b} aComponent={HostWrap} aText={VirtualBox is not currently allowed to access USB devices.  You can change this by adding your user to the 'vboxusers' group.  Please see the user manual for a more detailed explanation}, preserve=true  aResultDetail=0
00:00:04.475154 nspr-2   Failed to open "/dev/vboxdrvu", errno=2, rc=VERR_VM_DRIVER_NOT_INSTALLED
00:00:04.622098 nspr-2   WARNING [COM]: aRC=NS_ERROR_FAILURE (0x80004005) aIID={16ced992-5fdc-4aba-aff5-6a39bbd7c38b} aComponent={HostWrap} aText={VirtualBox is not currently allowed to access USB devices.  You can change this by adding your user to the 'vboxusers' group.  Please see the user manual for a more detailed explanation}, preserve=true  aResultDetail=0
00:00:04.623185 nspr-2   WARNING [COM]: aRC=NS_ERROR_FAILURE (0x80004005) aIID={16ced992-5fdc-4aba-aff5-6a39bbd7c38b} aComponent={HostWrap} aText={VirtualBox is not currently allowed to access USB devices.  You can change this by adding your user to the 'vboxusers' group.  Please see the user manual for a more detailed explanation}, preserve=true  aResultDetail=0
00:00:05.727715 nspr-2   Launched VM: 626845632 pid: 2143 (0x85f) frontend: GUI/Qt name: Kali
00:00:05.779471 nspr-3   Failed to open "/dev/vboxdrvu", errno=2, rc=VERR_VM_DRIVER_NOT_INSTALLED
00:00:05.799042 nspr-3   WARNING [COM]: aRC=NS_ERROR_FAILURE (0x80004005) aIID={16ced992-5fdc-4aba-aff5-6a39bbd7c38b} aComponent={HostWrap} aText={VirtualBox is not currently allowed to access USB devices.  You can change this by adding your user to the 'vboxusers' group.  Please see the user manual for a more detailed explanation}, preserve=true  aResultDetail=0
00:00:05.800082 nspr-3   WARNING [COM]: aRC=NS_ERROR_FAILURE (0x80004005) aIID={16ced992-5fdc-4aba-aff5-6a39bbd7c38b} aComponent={HostWrap} aText={VirtualBox is not currently allowed to access USB devices.  You can change this by adding your user to the 'vboxusers' group.  Please see the user manual for a more detailed explanation}, preserve=true  aResultDetail=0
00:00:06.228955 Watcher  ERROR [COM]: aRC=NS_ERROR_FAILURE (0x80004005) aIID={85632c68-b5bb-4316-a900-5eb28d3413df} aComponent={MachineWrap} aText={The virtual machine 'Kali' has terminated unexpectedly during startup with exit code 1 (0x1)}, preserve=false aResultDetail=0
00:00:06.836738 nspr-4   Failed to open "/dev/vboxdrvu", errno=2, rc=VERR_VM_DRIVER_NOT_INSTALLED
00:00:06.859530 nspr-4   WARNING [COM]: aRC=NS_ERROR_FAILURE (0x80004005) aIID={16ced992-5fdc-4aba-aff5-6a39bbd7c38b} aComponent={HostWrap} aText={VirtualBox is not currently allowed to access USB devices.  You can change this by adding your user to the 'vboxusers' group.  Please see the user manual for a more detailed explanation}, preserve=true  aResultDetail=0
00:00:06.860318 nspr-4   WARNING [COM]: aRC=NS_ERROR_FAILURE (0x80004005) aIID={16ced992-5fdc-4aba-aff5-6a39bbd7c38b} aComponent={HostWrap} aText={VirtualBox is not currently allowed to access USB devices.  You can change this by adding your user to the 'vboxusers' group.  Please see the user manual for a more detailed explanation}, preserve=true  aResultDetail=0
00:12:53.343371 nspr-2   Saving settings file "/home/kyleb/.config/VirtualBox/VirtualBox.xml" with version "1.12-linux"
00:12:53.349429 nspr-2   Saving settings file "/home/kyleb/.config/VirtualBox/VirtualBox.xml" with version "1.12-linux"
00:12:53.355939 nspr-4   Saving settings file "/home/kyleb/.config/VirtualBox/VirtualBox.xml" with version "1.12-linux"
00:12:53.363378 nspr-4   Saving settings file "/home/kyleb/.config/VirtualBox/VirtualBox.xml" with version "1.12-linux"
00:12:53.369609 nspr-4   Saving settings file "/home/kyleb/.config/VirtualBox/VirtualBox.xml" with version "1.12-linux"
00:12:53.373488 nspr-2   Saving settings file "/home/kyleb/.config/VirtualBox/VirtualBox.xml" with version "1.12-linux"
00:12:53.376892 nspr-3   Saving settings file "/home/kyleb/.config/VirtualBox/VirtualBox.xml" with version "1.12-linux"
00:12:58.892458 main     VirtualBox: object deletion starts
00:12:58.892540 main     ERROR [COM]: aRC=VBOX_E_OBJECT_IN_USE (0x80bb000c) aIID={ad47ad09-787b-44ab-b343-a082a3f2dfb1} aComponent={MediumWrap} aText={Medium '/home/kyleb/VirtualBox VMs/Kali/Kali.vdi' cannot be closed because it is still attached to 1 virtual machines}, preserve=false aResultDetail=0
00:12:58.893693 main     HostDnsMonitor: shutting down ...
00:12:58.898198 main     HostDnsMonitor: shut down
00:12:58.996739 Watcher  ERROR [COM]: aRC=E_ACCESSDENIED (0x80070005) aIID={d0a0163f-e254-4e5b-a1f2-011cf991c38d} aComponent={VirtualBoxWrap} aText={The object is not ready}, preserve=false aResultDetail=0
00:13:03.898380 main     {00007fad90017000} HostPowerServiceLinux::~HostPowerServiceLinux: RTThreadWait() for 5000 ms failed with VERR_TIMEOUT
00:13:03.898960 main     VirtualBox: object deleted
