{
   "appDesc": {
      "description": "Ενεργοποιήστε τη φωτογραφική μηχανή και να τραβάτε φωτογραφίες, εικόνες, ή μια φωτογραφία με την κάμερα σας.",
      "message": "Ενεργοποιήστε τη φωτογραφική μηχανή και να τραβάτε φωτογραφίες, εικόνες, ή μια φωτογραφ^uία με την κάμερα σας."
   },
   "appName": {
      "description": "Ενεργοποιήστε τη φωτογραφική μηχανή και να τραβάτε φωτογραφίες, εικόνες, ή μια φωτογραφία με την κάμερα σας. Πιο χρήσιμο από ένα παιχνίδι.",
      "message": "Κάμερα"
   }
}
